{
    "version": "1.0.0",
    "summary": "Test Suites",
    "repository": "https://github.com/user/project.git",
    "license": "BSD3",
    "source-directories": [
        "../src",
        "."
    ],
    "exposed-modules": [],
    "dependencies": {
        "NoRedInk/elm-decode-pipeline": "3.0.0 <= v < 4.0.0",
        "cuducos/elm-format-number": "5.0.2 <= v < 6.0.0",
        "elm-community/elm-material-icons": "2.0.1 <= v < 3.0.0",
        "elm-community/html-extra": "2.2.0 <= v < 3.0.0",
        "elm-community/string-extra": "1.4.0 <= v < 2.0.0",
        "elm-lang/core": "5.1.1 <= v < 6.0.0",
        "elm-lang/html": "2.0.0 <= v < 3.0.0",
        "elm-lang/http": "1.0.0 <= v < 2.0.0",
        "elm-lang/navigation": "2.1.0 <= v < 3.0.0",
        "elm-lang/svg": "2.0.0 <= v < 3.0.0",
        "elm-lang/virtual-dom": "2.0.4 <= v < 3.0.0",
        "elm-lang/window": "1.0.1 <= v < 2.0.0",
        "eskimoblood/elm-color-extra": "5.0.0 <= v < 6.0.0",
        "evancz/url-parser": "2.0.1 <= v < 3.0.0",
        "gampleman/elm-visualization": "1.4.0 <= v < 2.0.0",
        "hecrj/elm-slug": "1.0.1 <= v < 2.0.0",
        "jamesmacaulay/elm-graphql": "1.5.0 <= v < 1.6.0",
        "krisajenkins/remotedata": "4.3.0 <= v < 5.0.0",
        "mpizenberg/elm-debounce": "3.0.2 <= v < 4.0.0",
        "rluiten/elm-date-extra": "9.1.1 <= v < 10.0.0",
        "rtfeldman/elm-validate": "1.1.3 <= v < 2.0.0",
        "rundis/elm-bootstrap": "4.1.0 <= v < 4.2.0",
        "simonh1000/elm-jwt": "5.2.1 <= v < 6.0.0"
    },
    "elm-version": "0.18.0 <= v < 0.19.0"
}
